{
  "bindings": [
    {
      "members": [
        "serviceAccount:863115785838-compute@developer.gserviceaccount.com",
        "serviceAccount:863115785838@cloudservices.gserviceaccount.com",
        "serviceAccount:container-engine-stackdriver-a@enduring-grid-93501.iam.gserviceaccount.com",
        "serviceAccount:enduring-grid-93501@appspot.gserviceaccount.com",
        "serviceAccount:rn-tm-testing@enduring-grid-93501.iam.gserviceaccount.com",
        "serviceAccount:service-863115785838@dataflow-service-producer-prod.iam.gserviceaccount.com"
      ],
      "role": "roles/editor"
    },
    {
      "members": [
        "serviceAccount:service-863115785838@gcp-sa-firestore.iam.gserviceaccount.com"
      ],
      "role": "roles/firestore.serviceAgent"
    },
    {
      "members": [
        "serviceAccount:container-engine-stackdriver-a@enduring-grid-93501.iam.gserviceaccount.com"
      ],
      "role": "roles/logging.logWriter"
    },
    {
      "members": [
        "user:ruanning@gmail.com"
      ],
      "role": "roles/owner"
    },
    {
      "members": [
        "serviceAccount:service-863115785838@sourcerepo-service-accounts.iam.gserviceaccount.com"
      ],
      "role": "roles/sourcerepo.serviceAgent"
    },
    {
      "members": [
        "group:codejam-announce@googlegroups.com"
      ],
      "role": "roles/viewer"
    }
  ],
  "etag": "BwXPJCTImNM=",
  "version": 1
}